{
  "schema" : "https://gitlab.com/gitlab-org/security-products/security-report-schemas/-/raw/v10.0.0/dist/sast-report-format.json",
  "version" : "10.0.0",
  "scan" : {
    "start_time" : "2021-07-06T11:59:39",
    "end_time" : "2021-07-06T11:59:39",
    "status" : "success",
    "type" : "sast",
    "scanner" : {
      "id" : "fortify-sca",
      "name" : "Fortify SCA",
      "url" : "https://www.microfocus.com/en-us/products/application-security-testing/overview",
      "version" : "SCA 20.2.2.0003",
      "vendor" : {
        "name" : "Fortify"
      }
    }
  },
  "vulnerabilities" : [ {
    "id" : "87E3EC5CC8154C006783CC461A6DDEEB",
    "category" : "sast",
    "name" : "Build Misconfiguration: External Maven Dependency Repository",
    "message" : "Build Misconfiguration: External Maven Dependency Repository",
    "description" : "This maven build script relies on external sources, which could allow an attacker to insert malicious code into the final product or to take control of the build machine.\n\n\n",
    "cve" : "N/A",
    "severity" : "Low",
    "confidence" : "Low",
    "solution" : "Several tools exist within the Java development world to aid in dependency management: both Apache Ant and Apache Maven build systems include functionality specifically designed to help manage dependencies and Apache Ivy is developed explicitly as a dependency manager. Although there are differences in their behavior, these tools share the common functionality that they automatically download external dependencies specified in the build process at build time. This makes it much easier for developer B to build software in the same manner as developer A. Developers just store dependency information in the build file, which means that each developer and build engineer has a consistent way to obtain dependencies, compile the code, and deploy without the dependency management hassles involved in manual dependency management. The following examples illustrate how Ivy, Ant, and Maven can be used to manage external dependencies as part of a build process.\n\nUnder Maven, instead of listing explicit URLs from which to retrieve the dependencies, developers specify the dependency names and versions and Maven relies on its underlying configuration to identify the server(s) from which to retrieve the dependencies. For commonly used components this saves the developer from having to researching dependency locations.\n\nExample 1: The following except from a Maven pom.xml file shows how a developer can specify multiple external dependencies using their name and version:\n\n\n&lt;dependencies&gt;\n  &lt;dependency&gt;\n    &lt;groupId&gt;commons-logging&lt;/groupId&gt;\n    &lt;artifactId&gt;commons-logging&lt;/artifactId&gt;\n    &lt;version&gt;1.1&lt;/version&gt;\n  &lt;/dependency&gt;\n  &lt;dependency&gt;\n    &lt;groupId&gt;javax.jms&lt;/groupId&gt;\n    &lt;artifactId&gt;jms&lt;/artifactId&gt;\n    &lt;version&gt;1.1&lt;/version&gt;\n  &lt;/dependency&gt;\n  ...\n&lt;/dependencies&gt;\n\n\nTwo distinct types of attack scenarios affect these systems: An attacker could either compromise the server hosting the dependency or compromise the DNS server the build machine uses to redirect requests for hostname of the server hosting the dependency to a machine controlled by the attacker. Both scenarios result in the attacker gaining the ability to inject a malicious version of a dependency into a build running on an otherwise uncompromised machine.\n\nRegardless of the attack vector used to deliver the Trojan dependency, these scenarios share the common element that the build system blindly accepts the malicious binary and includes it in the build. Because the build system has no recourse for rejecting the malicious binary and existing security mechanisms, such as code review, typically focus on internally-developed code rather than external dependencies, this type of attack has a strong potential to go unnoticed as it spreads through the development environment and potentially into production.\n\nAlthough there is some risk of a compromised dependency being introduced into a manual build process, by the tendency of automated build systems to retrieve the dependency from an external source each time the build system is run in a new environment greatly increases the window of opportunity for an attacker. An attacker need only compromise the dependency server or the DNS server during one of the many times the dependency is retrieved in order to compromise the machine on which the build is occurring.\n\nThe simplest solution is to refrain from adopting automated dependency management systems altogether. Managing dependencies manually eliminates the potential for unexpected behavior caused by the build system. Obviously, an attacker could still mount one of the attacks described previously to coincide with the manual retrieval of a dependency, but limiting the frequency with which the dependency must be retrieved significantly reduces the window of opportunity for an attacker. Finally, this solution forces the development organization to rely on what is ostensibly an antiquated build system. A system based on manual dependency management is often more difficult to use and maintain, and might be unacceptable in some software development environments.\n\nThe second solution is a hybrid of the traditional manual dependency management approach and the fully automated solution that is popular today. The biggest advantage of the manual build process is the decreased window of attack, which can be achieved in a semi-automated system by replicating external dependency servers internally. Any build system that requires an external dependency can then point to the internal server using a hard-coded internal IP address to bypass the risk of DNS-based attacks. As new dependencies are added and new versions released, they can be downloaded once and included on the internal repository. This solution reduces the attack opportunities and allows the organization leverage existing internal network security infrastructure.\n\nTo implement this solution using Maven, a project should have the IP address for an internal repository hard coded the pom.xml. Specifying the IP address in the pom.xml ensures the internal repository will be used by the corresponding build, but is tied to a specific project. Alternatively, the IP address can be specified in settings.xml, which makes the configuration easier to share across multiple projects.\n\nExample 2: The following Maven pom.xml demonstrates the use of an explicit internal IP address (the entries can also be used in settings.xml):\n\n\n&lt;project&gt;\n  ...\n  &lt;repositories&gt;\n    &lt;repository&gt;\n      &lt;releases&gt;\n        &lt;enabled&gt;true&lt;/enabled&gt;\n        &lt;updatePolicy&gt;always&lt;/updatePolicy&gt;\n        &lt;checksumPolicy&gt;warn&lt;/checksumPolicy&gt;\n      &lt;/releases&gt;\n      &lt;snapshots&gt;\n        &lt;enabled&gt;true&lt;/enabled&gt;\n        &lt;updatePolicy&gt;never&lt;/updatePolicy&gt;\n        &lt;checksumPolicy&gt;fail&lt;/checksumPolicy&gt;\n      &lt;/snapshots&gt;\n      &lt;id&gt;central&lt;/id&gt;\n      &lt;name&gt;Internal Repository&lt;/name&gt;\n      &lt;url&gt;http://172.16.1.13/maven2&lt;/url&gt;\n      &lt;layout&gt;default&lt;/layout&gt;\n    &lt;/repository&gt;\n  &lt;/repositories&gt;\n  &lt;pluginRepositories&gt;\n    ...\n  &lt;/pluginRepositories&gt;\n  ...\n&lt;/project&gt;\n\n\n\n",
    "scanner" : {
      "id" : "fortify-sca",
      "name" : "Fortify SCA"
    },
    "identifiers" : [ {
      "name" : "Instance id: 87E3EC5CC8154C006783CC461A6DDEEB",
      "type" : "issueInstanceId",
      "value" : "87E3EC5CC8154C006783CC461A6DDEEB",
      "url" : "http://192.168.1.72:8080/ssc/html/ssc/version/10012/fix/8890/?engineType=SCA&issue=87E3EC5CC8154C006783CC461A6DDEEB"
    }, {
      "name" : "Primary Rule: FF57412F-DD28-44DE-8F4F-0AD39620768C",
      "type" : "ruleId",
      "value" : "FF57412F-DD28-44DE-8F4F-0AD39620768C"
    } ],
    "links" : [ {
      "name" : "Additional issue details, including analysis trace, in Software Security Center",
      "url" : "http://192.168.1.72:8080/ssc/html/ssc/version/10012/fix/8890/?engineType=SCA&issue=87E3EC5CC8154C006783CC461A6DDEEB"
    }, {
      "name" : "SecureCodeWarrior Training",
      "url" : "https://integration-api.securecodewarrior.com/partner?id=Microfocus&mappingKey=BuildMisconfiguration:ExternalMavenDependencyRepository:xml&redirect=true"
    } ],
    "location" : {
      "file" : "pom.xml",
      "start_line" : 3
    }
  }, {
    "id" : "F628E2883CA8C3292FD8DC58E2565A9A",
    "category" : "sast",
    "name" : "SQL Injection",
    "message" : "SQL Injection",
    "description" : "On line 42 of MessageDAO.java, the method read() invokes a SQL query built using input potentially coming from an untrusted source. This call could allow an attacker to modify the statement's meaning or to execute arbitrary SQL commands.\n\n\n",
    "cve" : "N/A",
    "severity" : "Low",
    "confidence" : "Low",
    "solution" : "SQL injection errors occur when:\n\n1. Data enters a program from an untrusted source.\n\nIn this case, Fortify Static Code Analyzer could not determine that the source of the data is trusted.\n\n2. The data is used to dynamically construct a SQL query.\n\n\nIn this case, the data is passed to query() in MessageDAO.java at line 42.\n\n\nExample 1: The following code dynamically constructs and executes a SQL query that searches for items matching a specified name. The query restricts the items displayed to those where the owner matches the user name of the currently-authenticated user.\n\n\n...\n\tString userName = ctx.getAuthenticatedUserName();\n\tString itemName = request.getParameter(\"itemName\");\n\tString query = \"SELECT * FROM items WHERE owner = '\"\n\t\t\t\t+ userName + \"' AND itemname = '\"\n\t\t\t\t+ itemName + \"'\";\n\tResultSet rs = stmt.execute(query);\n...\n\n\nThe query intends to execute the following code:\n\n\n\tSELECT * FROM items\n\tWHERE owner = &lt;userName&gt;\n\tAND itemname = &lt;itemName&gt;;\n\n\nHowever, because the query is constructed dynamically by concatenating a constant base query string and a user input string, the query only behaves correctly if itemName does not contain a single-quote character. If an attacker with the user name wiley enters the string \"name' OR 'a'='a\" for itemName, then the query becomes the following:\n\n\n\tSELECT * FROM items\n\tWHERE owner = 'wiley'\n\tAND itemname = 'name' OR 'a'='a';\n\n\nThe addition of the OR 'a'='a' condition causes the where clause to always evaluate to true, so the query becomes logically equivalent to the much simpler query:\n\n\n\tSELECT * FROM items;\n\n\nThis simplification of the query allows the attacker to bypass the requirement that the query must only return items owned by the authenticated user. The query now returns all entries stored in the items table, regardless of their specified owner.\n\nExample 2: This example examines the effects of a different malicious value passed to the query constructed and executed in Example 1. If an attacker with the user name wiley enters the string \"name'; DELETE FROM items; --\" for itemName, then the query becomes the following two queries:\n\n\n\tSELECT * FROM items\n\tWHERE owner = 'wiley'\n\tAND itemname = 'name';\n\n\tDELETE FROM items;\n\n\t--'\n\n\nMany database servers, including Microsoft(R) SQL Server 2000, allow multiple SQL statements separated by semicolons to be executed at once. While this attack string results in an error on Oracle and other database servers that do not allow the batch-execution of statements separated by semicolons, on databases that do allow batch execution, this type of attack allows the attacker to execute arbitrary commands against the database.\n\nNotice the trailing pair of hyphens (--), which specifies to most database servers that the remainder of the statement is to be treated as a comment and not executed [4]. In this case the comment character serves to remove the trailing single-quote left over from the modified query. On a database where comments are not allowed to be used in this way, the general attack could still be made effective using a trick similar to the one used in Example 1. If an attacker enters the string \"name'); DELETE FROM items; SELECT * FROM items WHERE 'a'='a\", the following three valid statements will be created:\n\n\n\tSELECT * FROM items\n\tWHERE owner = 'wiley'\n\tAND itemname = 'name';\n\n\tDELETE FROM items;\n\n\tSELECT * FROM items WHERE 'a'='a';\n\n\nSome think that in the mobile world, classic web application vulnerabilities, such as SQL injection, do not make sense -- why would the user attack themself? However, keep in mind that the essence of mobile platforms is applications that are downloaded from various sources and run alongside each other on the same device. The likelihood of running a piece of malware next to a banking application is high, which necessitates expanding the attack surface of mobile applications to include inter-process communication.\n\nExample 3: The following code adapts Example 1 to the Android platform.\n\n\n...\n        PasswordAuthentication pa = authenticator.getPasswordAuthentication();\n        String userName = pa.getUserName();\n        String itemName = this.getIntent().getExtras().getString(\"itemName\");\n        String query = \"SELECT * FROM items WHERE owner = '\"\n                                + userName + \"' AND itemname = '\"\n                                + itemName + \"'\";\n        SQLiteDatabase db = this.openOrCreateDatabase(\"DB\", MODE_PRIVATE, null);\n        Cursor c = db.rawQuery(query, null);\n...\n\n\nOne traditional approach to preventing SQL injection attacks is to handle them as an input validation problem and either accept only characters from an allow list of safe values or identify and escape a list of potentially malicious values (deny list). Checking an allow list can be a very effective means of enforcing strict input validation rules, but parameterized SQL statements require less maintenance and can offer more guarantees with respect to security. As is almost always the case, implementing a deny list is riddled with loopholes that make it ineffective at preventing SQL injection attacks. For example, attackers may:\n\n    - Target fields that are not quoted\n    - Find ways to bypass the need for certain escaped metacharacters\n    - Use stored procedures to hide the injected metacharacters\n\nManually escaping characters in input to SQL queries can help, but it will not make your application secure from SQL injection attacks.\n\nAnother solution commonly proposed for dealing with SQL injection attacks is to use stored procedures. Although stored procedures prevent some types of SQL injection attacks, they fail to protect against many others. Stored procedures typically help prevent SQL injection attacks by limiting the types of statements that can be passed to their parameters. However, there are many ways around the limitations and many interesting statements that can still be passed to stored procedures. Again, stored procedures can prevent some exploits, but they will not make your application secure against SQL injection attacks.\n\nThe root cause of a SQL injection vulnerability is the ability of an attacker to change context in the SQL query, causing a value that the programmer intended to be interpreted as data to be interpreted as a command instead. When a SQL query is constructed, the programmer knows what should be interpreted as part of the command and what should be interpreted as data. Parameterized SQL statements can enforce this behavior by disallowing data-directed context changes and preventing nearly all SQL injection attacks. Parameterized SQL statements are constructed using strings of regular SQL, but when user-supplied data needs to be included, they create bind parameters, which are placeholders for data that is subsequently inserted. Bind parameters allow the program to explicitly specify to the database what should be treated as a command and what should be treated as data. When the program is ready to execute a statement, it specifies to the database the runtime values to use for the value of each of the bind parameters, without the risk of the data being interpreted as commands.\n\nExample 1 can be rewritten to use parameterized SQL statements (instead of concatenating user supplied strings) as follows:\n\n\n...\n\tString userName = ctx.getAuthenticatedUserName();\n\tString itemName = request.getParameter(\"itemName\");\n\tString query =\n        \t\"SELECT * FROM items WHERE itemname=? AND owner=?\";\n\tPreparedStatement stmt = conn.prepareStatement(query);\n\tstmt.setString(1, itemName);\n\tstmt.setString(2, userName);\n\tResultSet results = stmt.execute();\n...\n\n\nAnd here is an Android equivalent:\n\n\n...\n\tPasswordAuthentication pa = authenticator.getPasswordAuthentication();\n\tString userName = pa.getUserName();\n\tString itemName = this.getIntent().getExtras().getString(\"itemName\");\n\tString query = \"SELECT * FROM items WHERE itemname=? AND owner=?\";\n\tSQLiteDatabase db = this.openOrCreateDatabase(\"DB\", MODE_PRIVATE, null);\n\tCursor c = db.rawQuery(query, new Object[]{itemName, userName});\n...\n\n\nMore complicated scenarios, often found in report generation code, require that user input affect the command structure of the SQL statement, such as the addition of dynamic constraints in the WHERE clause. Do not use this requirement to justify concatenating user input into query strings. Prevent SQL injection attacks where user input must affect statement command structure with a level of indirection: create a set of legitimate strings that correspond to different elements you might include in a SQL statement. When constructing a statement, use input from the user to select from this set of application-controlled values.\n\n\n",
    "scanner" : {
      "id" : "fortify-sca",
      "name" : "Fortify SCA"
    },
    "identifiers" : [ {
      "name" : "Instance id: F628E2883CA8C3292FD8DC58E2565A9A",
      "type" : "issueInstanceId",
      "value" : "F628E2883CA8C3292FD8DC58E2565A9A",
      "url" : "http://192.168.1.72:8080/ssc/html/ssc/version/10012/fix/8893/?engineType=SCA&issue=F628E2883CA8C3292FD8DC58E2565A9A"
    }, {
      "name" : "Primary Rule: 02A6B1B6-DDFC-4078-A7D7-405DAA9EE672",
      "type" : "ruleId",
      "value" : "02A6B1B6-DDFC-4078-A7D7-405DAA9EE672"
    } ],
    "links" : [ {
      "name" : "Additional issue details, including analysis trace, in Software Security Center",
      "url" : "http://192.168.1.72:8080/ssc/html/ssc/version/10012/fix/8893/?engineType=SCA&issue=F628E2883CA8C3292FD8DC58E2565A9A"
    }, {
      "name" : "SecureCodeWarrior Training",
      "url" : "https://integration-api.securecodewarrior.com/partner?id=Microfocus&mappingKey=SQLInjection::java&redirect=true"
    } ],
    "location" : {
      "file" : "src/main/java/com/example/insecureforum/database/MessageDAO.java",
      "start_line" : 42
    }
  }, {
    "id" : "98FC3AC025514EDBB93714FC620D5388",
    "category" : "sast",
    "name" : "SQL Injection",
    "message" : "SQL Injection",
    "description" : "On line 58 of MessageDAO.java, the method post() invokes a SQL query built using input potentially coming from an untrusted source. This call could allow an attacker to modify the statement's meaning or to execute arbitrary SQL commands.\n\n\n",
    "cve" : "N/A",
    "severity" : "Low",
    "confidence" : "Low",
    "solution" : "SQL injection errors occur when:\n\n1. Data enters a program from an untrusted source.\n\nIn this case, Fortify Static Code Analyzer could not determine that the source of the data is trusted.\n\n2. The data is used to dynamically construct a SQL query.\n\n\nIn this case, the data is passed to execute() in MessageDAO.java at line 58.\n\n\nExample 1: The following code dynamically constructs and executes a SQL query that searches for items matching a specified name. The query restricts the items displayed to those where the owner matches the user name of the currently-authenticated user.\n\n\n...\n\tString userName = ctx.getAuthenticatedUserName();\n\tString itemName = request.getParameter(\"itemName\");\n\tString query = \"SELECT * FROM items WHERE owner = '\"\n\t\t\t\t+ userName + \"' AND itemname = '\"\n\t\t\t\t+ itemName + \"'\";\n\tResultSet rs = stmt.execute(query);\n...\n\n\nThe query intends to execute the following code:\n\n\n\tSELECT * FROM items\n\tWHERE owner = &lt;userName&gt;\n\tAND itemname = &lt;itemName&gt;;\n\n\nHowever, because the query is constructed dynamically by concatenating a constant base query string and a user input string, the query only behaves correctly if itemName does not contain a single-quote character. If an attacker with the user name wiley enters the string \"name' OR 'a'='a\" for itemName, then the query becomes the following:\n\n\n\tSELECT * FROM items\n\tWHERE owner = 'wiley'\n\tAND itemname = 'name' OR 'a'='a';\n\n\nThe addition of the OR 'a'='a' condition causes the where clause to always evaluate to true, so the query becomes logically equivalent to the much simpler query:\n\n\n\tSELECT * FROM items;\n\n\nThis simplification of the query allows the attacker to bypass the requirement that the query must only return items owned by the authenticated user. The query now returns all entries stored in the items table, regardless of their specified owner.\n\nExample 2: This example examines the effects of a different malicious value passed to the query constructed and executed in Example 1. If an attacker with the user name wiley enters the string \"name'; DELETE FROM items; --\" for itemName, then the query becomes the following two queries:\n\n\n\tSELECT * FROM items\n\tWHERE owner = 'wiley'\n\tAND itemname = 'name';\n\n\tDELETE FROM items;\n\n\t--'\n\n\nMany database servers, including Microsoft(R) SQL Server 2000, allow multiple SQL statements separated by semicolons to be executed at once. While this attack string results in an error on Oracle and other database servers that do not allow the batch-execution of statements separated by semicolons, on databases that do allow batch execution, this type of attack allows the attacker to execute arbitrary commands against the database.\n\nNotice the trailing pair of hyphens (--), which specifies to most database servers that the remainder of the statement is to be treated as a comment and not executed [4]. In this case the comment character serves to remove the trailing single-quote left over from the modified query. On a database where comments are not allowed to be used in this way, the general attack could still be made effective using a trick similar to the one used in Example 1. If an attacker enters the string \"name'); DELETE FROM items; SELECT * FROM items WHERE 'a'='a\", the following three valid statements will be created:\n\n\n\tSELECT * FROM items\n\tWHERE owner = 'wiley'\n\tAND itemname = 'name';\n\n\tDELETE FROM items;\n\n\tSELECT * FROM items WHERE 'a'='a';\n\n\nSome think that in the mobile world, classic web application vulnerabilities, such as SQL injection, do not make sense -- why would the user attack themself? However, keep in mind that the essence of mobile platforms is applications that are downloaded from various sources and run alongside each other on the same device. The likelihood of running a piece of malware next to a banking application is high, which necessitates expanding the attack surface of mobile applications to include inter-process communication.\n\nExample 3: The following code adapts Example 1 to the Android platform.\n\n\n...\n        PasswordAuthentication pa = authenticator.getPasswordAuthentication();\n        String userName = pa.getUserName();\n        String itemName = this.getIntent().getExtras().getString(\"itemName\");\n        String query = \"SELECT * FROM items WHERE owner = '\"\n                                + userName + \"' AND itemname = '\"\n                                + itemName + \"'\";\n        SQLiteDatabase db = this.openOrCreateDatabase(\"DB\", MODE_PRIVATE, null);\n        Cursor c = db.rawQuery(query, null);\n...\n\n\nOne traditional approach to preventing SQL injection attacks is to handle them as an input validation problem and either accept only characters from an allow list of safe values or identify and escape a list of potentially malicious values (deny list). Checking an allow list can be a very effective means of enforcing strict input validation rules, but parameterized SQL statements require less maintenance and can offer more guarantees with respect to security. As is almost always the case, implementing a deny list is riddled with loopholes that make it ineffective at preventing SQL injection attacks. For example, attackers may:\n\n    - Target fields that are not quoted\n    - Find ways to bypass the need for certain escaped metacharacters\n    - Use stored procedures to hide the injected metacharacters\n\nManually escaping characters in input to SQL queries can help, but it will not make your application secure from SQL injection attacks.\n\nAnother solution commonly proposed for dealing with SQL injection attacks is to use stored procedures. Although stored procedures prevent some types of SQL injection attacks, they fail to protect against many others. Stored procedures typically help prevent SQL injection attacks by limiting the types of statements that can be passed to their parameters. However, there are many ways around the limitations and many interesting statements that can still be passed to stored procedures. Again, stored procedures can prevent some exploits, but they will not make your application secure against SQL injection attacks.\n\nThe root cause of a SQL injection vulnerability is the ability of an attacker to change context in the SQL query, causing a value that the programmer intended to be interpreted as data to be interpreted as a command instead. When a SQL query is constructed, the programmer knows what should be interpreted as part of the command and what should be interpreted as data. Parameterized SQL statements can enforce this behavior by disallowing data-directed context changes and preventing nearly all SQL injection attacks. Parameterized SQL statements are constructed using strings of regular SQL, but when user-supplied data needs to be included, they create bind parameters, which are placeholders for data that is subsequently inserted. Bind parameters allow the program to explicitly specify to the database what should be treated as a command and what should be treated as data. When the program is ready to execute a statement, it specifies to the database the runtime values to use for the value of each of the bind parameters, without the risk of the data being interpreted as commands.\n\nExample 1 can be rewritten to use parameterized SQL statements (instead of concatenating user supplied strings) as follows:\n\n\n...\n\tString userName = ctx.getAuthenticatedUserName();\n\tString itemName = request.getParameter(\"itemName\");\n\tString query =\n        \t\"SELECT * FROM items WHERE itemname=? AND owner=?\";\n\tPreparedStatement stmt = conn.prepareStatement(query);\n\tstmt.setString(1, itemName);\n\tstmt.setString(2, userName);\n\tResultSet results = stmt.execute();\n...\n\n\nAnd here is an Android equivalent:\n\n\n...\n\tPasswordAuthentication pa = authenticator.getPasswordAuthentication();\n\tString userName = pa.getUserName();\n\tString itemName = this.getIntent().getExtras().getString(\"itemName\");\n\tString query = \"SELECT * FROM items WHERE itemname=? AND owner=?\";\n\tSQLiteDatabase db = this.openOrCreateDatabase(\"DB\", MODE_PRIVATE, null);\n\tCursor c = db.rawQuery(query, new Object[]{itemName, userName});\n...\n\n\nMore complicated scenarios, often found in report generation code, require that user input affect the command structure of the SQL statement, such as the addition of dynamic constraints in the WHERE clause. Do not use this requirement to justify concatenating user input into query strings. Prevent SQL injection attacks where user input must affect statement command structure with a level of indirection: create a set of legitimate strings that correspond to different elements you might include in a SQL statement. When constructing a statement, use input from the user to select from this set of application-controlled values.\n\n\n",
    "scanner" : {
      "id" : "fortify-sca",
      "name" : "Fortify SCA"
    },
    "identifiers" : [ {
      "name" : "Instance id: 98FC3AC025514EDBB93714FC620D5388",
      "type" : "issueInstanceId",
      "value" : "98FC3AC025514EDBB93714FC620D5388",
      "url" : "http://192.168.1.72:8080/ssc/html/ssc/version/10012/fix/8891/?engineType=SCA&issue=98FC3AC025514EDBB93714FC620D5388"
    }, {
      "name" : "Primary Rule: 02A6B1B6-DDFC-4078-A7D7-405DAA9EE672",
      "type" : "ruleId",
      "value" : "02A6B1B6-DDFC-4078-A7D7-405DAA9EE672"
    } ],
    "links" : [ {
      "name" : "Additional issue details, including analysis trace, in Software Security Center",
      "url" : "http://192.168.1.72:8080/ssc/html/ssc/version/10012/fix/8891/?engineType=SCA&issue=98FC3AC025514EDBB93714FC620D5388"
    }, {
      "name" : "SecureCodeWarrior Training",
      "url" : "https://integration-api.securecodewarrior.com/partner?id=Microfocus&mappingKey=SQLInjection::java&redirect=true"
    } ],
    "location" : {
      "file" : "src/main/java/com/example/insecureforum/database/MessageDAO.java",
      "start_line" : 58
    }
  }, {
    "id" : "67653FFF73836EC1BAEFBC88D0B56997",
    "category" : "sast",
    "name" : "SQL Injection",
    "message" : "SQL Injection",
    "description" : "On line 19 of UserDAO.java, the method authenticate() invokes a SQL query built using input potentially coming from an untrusted source. This call could allow an attacker to modify the statement's meaning or to execute arbitrary SQL commands.\n\n\n",
    "cve" : "N/A",
    "severity" : "Low",
    "confidence" : "Low",
    "solution" : "SQL injection errors occur when:\n\n1. Data enters a program from an untrusted source.\n\nIn this case, Fortify Static Code Analyzer could not determine that the source of the data is trusted.\n\n2. The data is used to dynamically construct a SQL query.\n\n\nIn this case, the data is passed to query() in UserDAO.java at line 19.\n\n\nExample 1: The following code dynamically constructs and executes a SQL query that searches for items matching a specified name. The query restricts the items displayed to those where the owner matches the user name of the currently-authenticated user.\n\n\n...\n\tString userName = ctx.getAuthenticatedUserName();\n\tString itemName = request.getParameter(\"itemName\");\n\tString query = \"SELECT * FROM items WHERE owner = '\"\n\t\t\t\t+ userName + \"' AND itemname = '\"\n\t\t\t\t+ itemName + \"'\";\n\tResultSet rs = stmt.execute(query);\n...\n\n\nThe query intends to execute the following code:\n\n\n\tSELECT * FROM items\n\tWHERE owner = &lt;userName&gt;\n\tAND itemname = &lt;itemName&gt;;\n\n\nHowever, because the query is constructed dynamically by concatenating a constant base query string and a user input string, the query only behaves correctly if itemName does not contain a single-quote character. If an attacker with the user name wiley enters the string \"name' OR 'a'='a\" for itemName, then the query becomes the following:\n\n\n\tSELECT * FROM items\n\tWHERE owner = 'wiley'\n\tAND itemname = 'name' OR 'a'='a';\n\n\nThe addition of the OR 'a'='a' condition causes the where clause to always evaluate to true, so the query becomes logically equivalent to the much simpler query:\n\n\n\tSELECT * FROM items;\n\n\nThis simplification of the query allows the attacker to bypass the requirement that the query must only return items owned by the authenticated user. The query now returns all entries stored in the items table, regardless of their specified owner.\n\nExample 2: This example examines the effects of a different malicious value passed to the query constructed and executed in Example 1. If an attacker with the user name wiley enters the string \"name'; DELETE FROM items; --\" for itemName, then the query becomes the following two queries:\n\n\n\tSELECT * FROM items\n\tWHERE owner = 'wiley'\n\tAND itemname = 'name';\n\n\tDELETE FROM items;\n\n\t--'\n\n\nMany database servers, including Microsoft(R) SQL Server 2000, allow multiple SQL statements separated by semicolons to be executed at once. While this attack string results in an error on Oracle and other database servers that do not allow the batch-execution of statements separated by semicolons, on databases that do allow batch execution, this type of attack allows the attacker to execute arbitrary commands against the database.\n\nNotice the trailing pair of hyphens (--), which specifies to most database servers that the remainder of the statement is to be treated as a comment and not executed [4]. In this case the comment character serves to remove the trailing single-quote left over from the modified query. On a database where comments are not allowed to be used in this way, the general attack could still be made effective using a trick similar to the one used in Example 1. If an attacker enters the string \"name'); DELETE FROM items; SELECT * FROM items WHERE 'a'='a\", the following three valid statements will be created:\n\n\n\tSELECT * FROM items\n\tWHERE owner = 'wiley'\n\tAND itemname = 'name';\n\n\tDELETE FROM items;\n\n\tSELECT * FROM items WHERE 'a'='a';\n\n\nSome think that in the mobile world, classic web application vulnerabilities, such as SQL injection, do not make sense -- why would the user attack themself? However, keep in mind that the essence of mobile platforms is applications that are downloaded from various sources and run alongside each other on the same device. The likelihood of running a piece of malware next to a banking application is high, which necessitates expanding the attack surface of mobile applications to include inter-process communication.\n\nExample 3: The following code adapts Example 1 to the Android platform.\n\n\n...\n        PasswordAuthentication pa = authenticator.getPasswordAuthentication();\n        String userName = pa.getUserName();\n        String itemName = this.getIntent().getExtras().getString(\"itemName\");\n        String query = \"SELECT * FROM items WHERE owner = '\"\n                                + userName + \"' AND itemname = '\"\n                                + itemName + \"'\";\n        SQLiteDatabase db = this.openOrCreateDatabase(\"DB\", MODE_PRIVATE, null);\n        Cursor c = db.rawQuery(query, null);\n...\n\n\nOne traditional approach to preventing SQL injection attacks is to handle them as an input validation problem and either accept only characters from an allow list of safe values or identify and escape a list of potentially malicious values (deny list). Checking an allow list can be a very effective means of enforcing strict input validation rules, but parameterized SQL statements require less maintenance and can offer more guarantees with respect to security. As is almost always the case, implementing a deny list is riddled with loopholes that make it ineffective at preventing SQL injection attacks. For example, attackers may:\n\n    - Target fields that are not quoted\n    - Find ways to bypass the need for certain escaped metacharacters\n    - Use stored procedures to hide the injected metacharacters\n\nManually escaping characters in input to SQL queries can help, but it will not make your application secure from SQL injection attacks.\n\nAnother solution commonly proposed for dealing with SQL injection attacks is to use stored procedures. Although stored procedures prevent some types of SQL injection attacks, they fail to protect against many others. Stored procedures typically help prevent SQL injection attacks by limiting the types of statements that can be passed to their parameters. However, there are many ways around the limitations and many interesting statements that can still be passed to stored procedures. Again, stored procedures can prevent some exploits, but they will not make your application secure against SQL injection attacks.\n\nThe root cause of a SQL injection vulnerability is the ability of an attacker to change context in the SQL query, causing a value that the programmer intended to be interpreted as data to be interpreted as a command instead. When a SQL query is constructed, the programmer knows what should be interpreted as part of the command and what should be interpreted as data. Parameterized SQL statements can enforce this behavior by disallowing data-directed context changes and preventing nearly all SQL injection attacks. Parameterized SQL statements are constructed using strings of regular SQL, but when user-supplied data needs to be included, they create bind parameters, which are placeholders for data that is subsequently inserted. Bind parameters allow the program to explicitly specify to the database what should be treated as a command and what should be treated as data. When the program is ready to execute a statement, it specifies to the database the runtime values to use for the value of each of the bind parameters, without the risk of the data being interpreted as commands.\n\nExample 1 can be rewritten to use parameterized SQL statements (instead of concatenating user supplied strings) as follows:\n\n\n...\n\tString userName = ctx.getAuthenticatedUserName();\n\tString itemName = request.getParameter(\"itemName\");\n\tString query =\n        \t\"SELECT * FROM items WHERE itemname=? AND owner=?\";\n\tPreparedStatement stmt = conn.prepareStatement(query);\n\tstmt.setString(1, itemName);\n\tstmt.setString(2, userName);\n\tResultSet results = stmt.execute();\n...\n\n\nAnd here is an Android equivalent:\n\n\n...\n\tPasswordAuthentication pa = authenticator.getPasswordAuthentication();\n\tString userName = pa.getUserName();\n\tString itemName = this.getIntent().getExtras().getString(\"itemName\");\n\tString query = \"SELECT * FROM items WHERE itemname=? AND owner=?\";\n\tSQLiteDatabase db = this.openOrCreateDatabase(\"DB\", MODE_PRIVATE, null);\n\tCursor c = db.rawQuery(query, new Object[]{itemName, userName});\n...\n\n\nMore complicated scenarios, often found in report generation code, require that user input affect the command structure of the SQL statement, such as the addition of dynamic constraints in the WHERE clause. Do not use this requirement to justify concatenating user input into query strings. Prevent SQL injection attacks where user input must affect statement command structure with a level of indirection: create a set of legitimate strings that correspond to different elements you might include in a SQL statement. When constructing a statement, use input from the user to select from this set of application-controlled values.\n\n\n",
    "scanner" : {
      "id" : "fortify-sca",
      "name" : "Fortify SCA"
    },
    "identifiers" : [ {
      "name" : "Instance id: 67653FFF73836EC1BAEFBC88D0B56997",
      "type" : "issueInstanceId",
      "value" : "67653FFF73836EC1BAEFBC88D0B56997",
      "url" : "http://192.168.1.72:8080/ssc/html/ssc/version/10012/fix/8888/?engineType=SCA&issue=67653FFF73836EC1BAEFBC88D0B56997"
    }, {
      "name" : "Primary Rule: 02A6B1B6-DDFC-4078-A7D7-405DAA9EE672",
      "type" : "ruleId",
      "value" : "02A6B1B6-DDFC-4078-A7D7-405DAA9EE672"
    } ],
    "links" : [ {
      "name" : "Additional issue details, including analysis trace, in Software Security Center",
      "url" : "http://192.168.1.72:8080/ssc/html/ssc/version/10012/fix/8888/?engineType=SCA&issue=67653FFF73836EC1BAEFBC88D0B56997"
    }, {
      "name" : "SecureCodeWarrior Training",
      "url" : "https://integration-api.securecodewarrior.com/partner?id=Microfocus&mappingKey=SQLInjection::java&redirect=true"
    } ],
    "location" : {
      "file" : "src/main/java/com/example/insecureforum/database/UserDAO.java",
      "start_line" : 19
    }
  }, {
    "id" : "38FF04B3BC9ECD70506933CD579556F3",
    "category" : "sast",
    "name" : "Trust Boundary Violation",
    "message" : "Trust Boundary Violation",
    "description" : "The method login() in AuthenticationController.java commingles trusted and untrusted data in the same data structure, which encourages programmers to mistakenly trust unvalidated data.\n\n\n",
    "cve" : "N/A",
    "severity" : "Low",
    "confidence" : "Low",
    "solution" : "A trust boundary can be thought of as line drawn through a program. On one side of the line, data is untrusted. On the other side of the line, data is assumed to be trustworthy. The purpose of validation logic is to allow data to safely cross the trust boundary--to move from untrusted to trusted.\n\nA trust boundary violation occurs when a program blurs the line between what is trusted and what is untrusted. The most common way to make this mistake is to allow trusted and untrusted data to commingle in the same data structure.\n\n\nIn this case, the untrusted data enters at login() in AuthenticationController.java at line 26. The data is added to what is generally used as a trusted data structure at the call to setAttribute() in AuthenticationController.java at line 31.\n\n\nExample: The following Java code accepts an HTTP request and stores the usrname parameter in the HTTP session object before checking to ensure that the user has been authenticated.\n\n\nusrname = request.getParameter(\"usrname\");\nif (session.getAttribute(ATTR_USR) != null) {\n    session.setAttribute(ATTR_USR, usrname);\n}\n\n\nWithout well-established and maintained trust boundaries, programmers will inevitably lose track of which pieces of data have been validated and which have not. This confusion eventually allows some data to be used without first being validated.\n\nDefine clear trust boundaries in the application. Do not use the same data structure to hold trusted data in some contexts and untrusted data in other contexts. Minimize the number of ways that data can move across a trust boundary.\n\nTrust boundary violations sometimes occur when input needs to be built up over a series of user interactions before being processed. It may not be possible to do complete input validation until all of the data has arrived. In these situations, it is still important to maintain a trust boundary. The untrusted data should be built up in a single untrusted data structure, validated, and then moved into a trusted location.\n\n\n",
    "scanner" : {
      "id" : "fortify-sca",
      "name" : "Fortify SCA"
    },
    "identifiers" : [ {
      "name" : "Instance id: 38FF04B3BC9ECD70506933CD579556F3",
      "type" : "issueInstanceId",
      "value" : "38FF04B3BC9ECD70506933CD579556F3",
      "url" : "http://192.168.1.72:8080/ssc/html/ssc/version/10012/fix/8883/?engineType=SCA&issue=38FF04B3BC9ECD70506933CD579556F3"
    }, {
      "name" : "Primary Rule: CBDB6290-DF73-42E1-8D9E-3B5C4B629761",
      "type" : "ruleId",
      "value" : "CBDB6290-DF73-42E1-8D9E-3B5C4B629761"
    } ],
    "links" : [ {
      "name" : "Additional issue details, including analysis trace, in Software Security Center",
      "url" : "http://192.168.1.72:8080/ssc/html/ssc/version/10012/fix/8883/?engineType=SCA&issue=38FF04B3BC9ECD70506933CD579556F3"
    }, {
      "name" : "SecureCodeWarrior Training",
      "url" : "https://integration-api.securecodewarrior.com/partner?id=Microfocus&mappingKey=TrustBoundaryViolation::java&redirect=true"
    } ],
    "location" : {
      "file" : "src/main/java/com/example/insecureforum/web/AuthenticationController.java",
      "start_line" : 31
    }
  }, {
    "id" : "B9FDA3056CA5EB2003FCFA1A8FB8A544",
    "category" : "sast",
    "name" : "Open Redirect",
    "message" : "Open Redirect",
    "description" : "The file AuthenticationController.java passes unvalidated data to an HTTP redirect function on line 45. Allowing unvalidated input to control the URL used in a redirect can aid phishing attacks.\n\n\n",
    "cve" : "N/A",
    "severity" : "Critical",
    "confidence" : "High",
    "solution" : "Redirects allow web applications to direct users to different pages within the same application or to external sites. Applications utilize redirects to aid in site navigation and, in some cases, to track how users exit the site. Open redirect vulnerabilities occur when a web application redirects clients to any arbitrary URL that can be controlled by an attacker.\n\nAttackers may utilize open redirects to trick users into visiting a URL to a trusted site and redirecting them to a malicious site. By encoding the URL, an attacker is able to make it more difficult for end-users to notice the malicious destination of the redirect, even when it is passed as a URL parameter to the trusted site. Open redirects are often abused as part of phishing scams to harvest sensitive end-user data.\n\n\nIn this case, the URL the client will be redirected to is accepted at loginSubmit() in AuthenticationController.java at line 36.\n\nThe data is sent at RedirectView() in AuthenticationController.java at line 45.\n\n\nExample 1: The following JSP code instructs the user's browser to open a URL parsed from the dest request parameter when a user clicks the link.\n\n\n    &lt;%\n        ...\n        String strDest = request.getParameter(\"dest\");\n        pageContext.forward(strDest);\n        ...\n    %&gt;\n\n\nIf a victim received an email instructing them to follow a link to \"http://trusted.example.com/ecommerce/redirect.asp?dest=www.wilyhacker.com\", the user would likely click on the link believing they would be transferred to the trusted site. However, when the victim clicks the link, the code in Example 1 will redirect the browser to \"http://www.wilyhacker.com\".\n\nMany users have been educated to always inspect URLs they receive in emails to make sure the link specifies a trusted site they know. However, if the attacker Hex encoded the destination url as follows:\n\"http://trusted.example.com/ecommerce/redirect.asp?dest=%77%69%6C%79%68%61%63%6B%65%72%2E%63%6F%6D\"\n\nthen even a savvy end-user may be fooled into following the link.\n\nUnvalidated user input should not be allowed to control the destination URL in a redirect. Instead, use a level of indirection: create a list of legitimate URLs that users are allowed to specify and only allow users to select from the list. With this approach, input provided by users is never used directly to specify a URL for redirects.\n\nExample 2: The following code references an array populated with valid URLs. The link the user clicks passes in the array index that corresponds to the desired URL.\n\n\n    &lt;%\n        ...\n        try {\n            int strDest = Integer.parseInt(request.getParameter(\"dest\"));\n            if((strDest &gt;= 0) &amp;&amp; (strDest &lt;= strURLArray.length -1 ))\n            {\n                strFinalURL = strURLArray[strDest];\n                pageContext.forward(strFinalURL);\n            }\n        }\n        catch (NumberFormatException nfe) {\n            // Handle exception\n            ...\n        }\n        ...\n    %&gt;\n\n\nIn some situations this approach is impractical because the set of legitimate URLs is too large or too hard to keep track of. In such cases, use a similar approach to restrict the domains that users can be redirected to, which can at least prevent attackers from sending users to malicious external sites.\n\n\n",
    "scanner" : {
      "id" : "fortify-sca",
      "name" : "Fortify SCA"
    },
    "identifiers" : [ {
      "name" : "Instance id: B9FDA3056CA5EB2003FCFA1A8FB8A544",
      "type" : "issueInstanceId",
      "value" : "B9FDA3056CA5EB2003FCFA1A8FB8A544",
      "url" : "http://192.168.1.72:8080/ssc/html/ssc/version/10012/fix/8892/?engineType=SCA&issue=B9FDA3056CA5EB2003FCFA1A8FB8A544"
    }, {
      "name" : "Primary Rule: A8711A11-D118-4669-AB5C-5FF29BBAE11C",
      "type" : "ruleId",
      "value" : "A8711A11-D118-4669-AB5C-5FF29BBAE11C"
    } ],
    "links" : [ {
      "name" : "Additional issue details, including analysis trace, in Software Security Center",
      "url" : "http://192.168.1.72:8080/ssc/html/ssc/version/10012/fix/8892/?engineType=SCA&issue=B9FDA3056CA5EB2003FCFA1A8FB8A544"
    }, {
      "name" : "SecureCodeWarrior Training",
      "url" : "https://integration-api.securecodewarrior.com/partner?id=Microfocus&mappingKey=OpenRedirect::java&redirect=true"
    } ],
    "location" : {
      "file" : "src/main/java/com/example/insecureforum/web/AuthenticationController.java",
      "start_line" : 45
    }
  }, {
    "id" : "2523E16EA052A0F31E10DC54D523E51A",
    "category" : "sast",
    "name" : "Header Manipulation: Cookies",
    "message" : "Header Manipulation: Cookies",
    "description" : "The method setCookie() in AuthenticationController.java includes unvalidated data in an HTTP cookie on line 56. This enables Cookie manipulation attacks and can lead to other HTTP Response header manipulation attacks like: cache-poisoning, cross-site scripting, cross-user defacement, page hijacking or open redirect.\n\n\n",
    "cve" : "N/A",
    "severity" : "High",
    "confidence" : "Low",
    "solution" : "Cookie Manipulation vulnerabilities occur when:\n\n1. Data enters a web application through an untrusted source, most frequently an HTTP request.\n\nIn this case, the data enters at loginSubmit() in AuthenticationController.java at line 36.\n\n2. The data is included in an HTTP cookie sent to a web user without being validated.\n\nIn this case, the data is sent at Cookie() in AuthenticationController.java at line 56.\n\nAs with many software security vulnerabilities, cookie manipulation is a means to an end, not an end in itself. At its root, the vulnerability is straightforward: an attacker passes malicious data to a vulnerable application, and the application includes the data in an HTTP cookie.\n\nCookie Manipulation: When combined with attacks like Cross-Site Request Forgery, attackers may change, add to, or even overwrite a legitimate user's cookies.\n\nBeing an HTTP Response header, Cookie manipulation attacks can also lead to other types of attacks like:\n\nHTTP Response Splitting:\nOne of the most common Header Manipulation attacks is HTTP Response Splitting. To mount a successful HTTP Response Splitting exploit, the application must allow input that contains CR (carriage return, also given by %0d or \\r) and LF (line feed, also given by %0a or \n)characters into the header. These characters not only give attackers control of the remaining headers and body of the response the application intends to send, but also allows them to create additional responses entirely under their control.\n\nMany of today's modern application servers will prevent the injection of malicious characters into HTTP headers. For example, recent versions of Apache Tomcat will throw an IllegalArgumentException if you attempt to set a header with prohibited characters. If your application server prevents setting headers with new line characters, then your application is not vulnerable to HTTP Response Splitting. However, solely filtering for new line characters can leave an application vulnerable to Cookie Manipulation or Open Redirects, so care must still be taken when setting HTTP headers with user input.\n\nExample 1: The following code segment reads the name of the author of a weblog entry, author, from an HTTP request and sets it in a cookie header of an HTTP response.\n\n\nString author = request.getParameter(AUTHOR_PARAM);\n...\nCookie cookie = new Cookie(\"author\", author);\n     cookie.setMaxAge(cookieExpiration);\n     response.addCookie(cookie);\n\n\nAssuming a string consisting of standard alphanumeric characters, such as \"Jane Smith\", is submitted in the request the HTTP response including this cookie might take the following form:\n\n\nHTTP/1.1 200 OK\n...\nSet-Cookie: author=Jane Smith\n...\n\n\nHowever, because the value of the cookie is formed of unvalidated user input the response will only maintain this form if the value submitted for AUTHOR_PARAM does not contain any CR and LF characters. If an attacker submits a malicious string, such as \"Wiley Hacker\\r\nHTTP/1.1 200 OK\\r\n...\", then the HTTP response would be split into two responses of the following form:\n\n\nHTTP/1.1 200 OK\n...\nSet-Cookie: author=Wiley Hacker\n\nHTTP/1.1 200 OK\n...\n\n\nClearly, the second response is completely controlled by the attacker and can be constructed with any header and body content desired. The ability of attacker to construct arbitrary HTTP responses permits a variety of resulting attacks, including: cross-user defacement, web and browser cache poisoning, cross-site scripting, and page hijacking.\n\nSome think that in the mobile world, classic web application vulnerabilities, such as header and cookie manipulation, do not make sense -- why would the user attack themself? However, keep in mind that the essence of mobile platforms is applications that are downloaded from various sources and run alongside each other on the same device. The likelihood of running a piece of malware next to a banking application is high, which necessitates expanding the attack surface of mobile applications to include inter-process communication.\n\nExample 2: The following code adapts Example 1 to the Android platform.\n\n\n...\n        CookieManager webCookieManager = CookieManager.getInstance();\n        String author = this.getIntent().getExtras().getString(AUTHOR_PARAM);\n        String setCookie = \"author=\" + author + \"; max-age=\" + cookieExpiration;\n        webCookieManager.setCookie(url, setCookie);\n\n...\n\n\nCross-User Defacement: An attacker will be able to make a single request to a vulnerable server that will cause the server to create two responses, the second of which may be misinterpreted as a response to a different request, possibly one made by another user sharing the same TCP connection with the server. This can be accomplished by convincing the user to submit the malicious request themselves, or remotely in situations where the attacker and the user share a common TCP connection to the server, such as a shared proxy server. In the best case, an attacker may leverage this ability to convince users that the application has been hacked, causing users to lose confidence in the security of the application. In the worst case, an attacker may provide specially crafted content designed to mimic the behavior of the application but redirect private information, such as account numbers and passwords, back to the attacker.\n\nCache Poisoning: The impact of a maliciously constructed response can be magnified if it is cached either by a web cache used by multiple users or even the browser cache of a single user. If a response is cached in a shared web cache, such as those commonly found in proxy servers, then all users of that cache will continue receive the malicious content until the cache entry is purged. Similarly, if the response is cached in the browser of an individual user, then that user will continue to receive the malicious content until the cache entry is purged, although only the user of the local browser instance will be affected.\n\nCross-Site Scripting: Once attackers have control of the responses sent by an application, they have a choice of a variety of malicious content to provide users. Cross-site scripting is common form of attack where malicious JavaScript or other code included in a response is executed in the user's browser. The variety of attacks based on XSS is almost limitless, but they commonly include transmitting private data like cookies or other session information to the attacker, redirecting the victim to web content controlled by the attacker, or performing other malicious operations on the user's machine under the guise of the vulnerable site. The most common and dangerous attack vector against users of a vulnerable application uses JavaScript to transmit session and authentication information back to the attacker who can then take complete control of the victim's account.\n\nPage Hijacking: In addition to using a vulnerable application to send malicious content to a user, the same root vulnerability can also be leveraged to redirect sensitive content generated by the server and intended for the user to the attacker instead. By submitting a request that results in two responses, the intended response from the server and the response generated by the attacker, an attacker may cause an intermediate node, such as a shared proxy server, to misdirect a response generated by the server for the user to the attacker. Because the request made by the attacker generates two responses, the first is interpreted as a response to the attacker's request, while the second remains in limbo. When the user makes a legitimate request through the same TCP connection, the attacker's request is already waiting and is interpreted as a response to the victim's request. The attacker then sends a second request to the server, to which the proxy server responds with the server generated request intended for the victim, thereby compromising any sensitive information in the headers or body of the response intended for the victim.\n\nOpen Redirect: Allowing unvalidated input to control the URL used in a redirect can aid phishing attacks.\n\nThe solution to cookie manipulation is to ensure that input validation occurs in the correct places and checks for the correct properties.\n\nSince Header Manipulation vulnerabilities like cookie manipulation occur when an application includes malicious data in its output, one logical approach is to validate data immediately before it leaves the application. However, because web applications often have complex and intricate code for generating responses dynamically, this method is prone to errors of omission (missing validation). An effective way to mitigate this risk is to also perform input validation for Header Manipulation.\n\nWeb applications must validate their input to prevent other vulnerabilities, such as SQL injection, so augmenting an application's existing input validation mechanism to include checks for Header Manipulation is generally relatively easy. Despite its value, input validation for Header Manipulation does not take the place of rigorous output validation. An application might accept input through a shared data store or other trusted source, and that data store might accept input from a source that does not perform adequate input validation. Therefore, the application cannot implicitly rely on the safety of this or any other data. This means that the best way to prevent Header Manipulation vulnerabilities is to validate everything that enters the application and leaves the application destined for the user.\n\nThe most secure approach to validation for Header Manipulation is to create an allow list of safe characters that are permitted to appear in HTTP response headers and accept input composed exclusively of characters in the approved set. For example, a valid name might only include alphanumeric characters or an account number might only include digits 0-9.\n\nA more flexible, but less secure approach is to implement a deny list, which selectively rejects or escapes potentially dangerous characters before using the input. To form such a list, you first need to understand the set of characters that hold special meaning in HTTP response headers. Although the CR and LF characters are at the heart of an HTTP response splitting attack, other characters, such as ':' (colon) and '=' (equal), have special meaning in response headers as well.\n\nAfter you identify the correct points in an application to perform validation for Header Manipulation attacks and what special characters the validation should consider, the next challenge is to identify how your validation handles special characters. The application should reject any input destined to be included in HTTP response headers that contains special characters, particularly CR and LF, as invalid.\n\nMany application servers attempt to limit an application's exposure to HTTP response splitting vulnerabilities by providing implementations for the functions responsible for setting HTTP headers and cookies that perform validation for the characters essential to an HTTP response splitting attack. Do not rely on the server running your application to make it secure. When an application is developed there are no guarantees about what application servers it will run on during its lifetime. As standards and known exploits evolve, there are no guarantees that application servers will also stay in sync.\n\n\n",
    "scanner" : {
      "id" : "fortify-sca",
      "name" : "Fortify SCA"
    },
    "identifiers" : [ {
      "name" : "Instance id: 2523E16EA052A0F31E10DC54D523E51A",
      "type" : "issueInstanceId",
      "value" : "2523E16EA052A0F31E10DC54D523E51A",
      "url" : "http://192.168.1.72:8080/ssc/html/ssc/version/10012/fix/8882/?engineType=SCA&issue=2523E16EA052A0F31E10DC54D523E51A"
    }, {
      "name" : "Primary Rule: F493EB79-7E64-4B7F-BCF4-41080CBF6508",
      "type" : "ruleId",
      "value" : "F493EB79-7E64-4B7F-BCF4-41080CBF6508"
    } ],
    "links" : [ {
      "name" : "Additional issue details, including analysis trace, in Software Security Center",
      "url" : "http://192.168.1.72:8080/ssc/html/ssc/version/10012/fix/8882/?engineType=SCA&issue=2523E16EA052A0F31E10DC54D523E51A"
    }, {
      "name" : "SecureCodeWarrior Training",
      "url" : "https://integration-api.securecodewarrior.com/partner?id=Microfocus&mappingKey=HeaderManipulation:Cookies:java&redirect=true"
    } ],
    "location" : {
      "file" : "src/main/java/com/example/insecureforum/web/AuthenticationController.java",
      "start_line" : 56
    }
  }, {
    "id" : "2F7F06ADF3375348270D0EE52FE62482",
    "category" : "sast",
    "name" : "Cookie Security: HTTPOnly not Set",
    "message" : "Cookie Security: HTTPOnly not Set",
    "description" : "The program creates a cookie in AuthenticationController.java at line 56, but fails to set the <code>HttpOnly</code> flag to <code>true</code>.\n\n\n",
    "cve" : "N/A",
    "severity" : "Low",
    "confidence" : "Low",
    "solution" : "All major browsers support the HttpOnly cookie property that prevents client-side scripts from accessing the cookie. Cross-site scripting attacks often access cookies in an attempt to steal session identifiers or authentication tokens. Without HttpOnly enabled, attackers have easier access to user cookies.\n\nIn this case, a cookie is set in AuthenticationController.java at line 56, but the HttpOnly parameter is not set or is set to false.\n\n\nExample 1: The following code creates a cookie without setting the HttpOnly property.\n\njavax.servlet.http.Cookie cookie = new javax.servlet.http.Cookie(\"emailCookie\", email);\n// Missing a call to: cookie.setHttpOnly(true);\n\n\nEnable the HttpOnly property when you create cookies. Do this by calling, in the case of javax.servlet.http.Cookie, the setHttpOnly(boolean) method with the argument true.\n\nExample 2: The following code creates the same cookie as the code in Example 1, but this time sets the HttpOnly parameter to true.\n\njavax.servlet.http.Cookie cookie = new javax.servlet.http.Cookie(\"emailCookie\", email);\ncookie.setHttpOnly(true);\n\n\nSeveral mechanisms to bypass setting HttpOnly to true have been developed, and therefore it is not completely effective.\n\n\n",
    "scanner" : {
      "id" : "fortify-sca",
      "name" : "Fortify SCA"
    },
    "identifiers" : [ {
      "name" : "Instance id: 2F7F06ADF3375348270D0EE52FE62482",
      "type" : "issueInstanceId",
      "value" : "2F7F06ADF3375348270D0EE52FE62482",
      "url" : "http://192.168.1.72:8080/ssc/html/ssc/version/10012/fix/8894/?engineType=SCA&issue=2F7F06ADF3375348270D0EE52FE62482"
    }, {
      "name" : "Primary Rule: 1733FB59-CC13-4E99-9638-3D45FEEE9BE1",
      "type" : "ruleId",
      "value" : "1733FB59-CC13-4E99-9638-3D45FEEE9BE1"
    } ],
    "links" : [ {
      "name" : "Additional issue details, including analysis trace, in Software Security Center",
      "url" : "http://192.168.1.72:8080/ssc/html/ssc/version/10012/fix/8894/?engineType=SCA&issue=2F7F06ADF3375348270D0EE52FE62482"
    }, {
      "name" : "SecureCodeWarrior Training",
      "url" : "https://integration-api.securecodewarrior.com/partner?id=Microfocus&mappingKey=CookieSecurity:HTTPOnlynotSet:java&redirect=true"
    } ],
    "location" : {
      "file" : "src/main/java/com/example/insecureforum/web/AuthenticationController.java",
      "start_line" : 56
    }
  }, {
    "id" : "61B4590CB004155CB3A1C1DD737F6058",
    "category" : "sast",
    "name" : "Cookie Security: Overly Broad Path",
    "message" : "Cookie Security: Overly Broad Path",
    "description" : "A cookie with an overly broad path can be accessed through other applications on the same domain.\n\n\n",
    "cve" : "N/A",
    "severity" : "High",
    "confidence" : "Low",
    "solution" : "Developers often set cookies to be accessible from the root context path (\"/\"). This exposes the cookie to all web applications on the domain. Because cookies often carry sensitive information such as session identifiers, sharing cookies across applications can cause a vulnerability in one application to compromise another application.\n\nExample 1:\nImagine you have a forum application deployed at http://communitypages.example.com/MyForum and the application sets a session ID cookie with path \"/\" when users log in to the forum.\n\nFor example:\n\n  Cookie cookie = new Cookie(\"sessionID\", sessionID);\n  cookie.setPath(\"/\");\n\n\nSuppose an attacker creates another application at http://communitypages.example.com/EvilSite and posts a link to this site on the forum. When a user of the forum clicks this link, the browser will send the cookie set by /MyForum to the application running at /EvilSite. By stealing the session ID, the attacker can compromise the account of any forum user that browsed to /EvilSite.\n\nIn addition to reading a cookie, it might be possible for attackers to perform a Cookie Poisoning attack by using /EvilSite to create its own overly broad cookie that overwrites the cookie from /MyForum.\n\nMake sure to set cookie paths to be as restrictive as possible.\n\nExample 2: The following code shows how to set the cookie path to \"/MyForum\" for the example in the Explanation section.\n\n  Cookie cookie = new Cookie(\"sessionID\", sessionID);\n  cookie.setPath(\"/MyForum\");\n\n\n\n",
    "scanner" : {
      "id" : "fortify-sca",
      "name" : "Fortify SCA"
    },
    "identifiers" : [ {
      "name" : "Instance id: 61B4590CB004155CB3A1C1DD737F6058",
      "type" : "issueInstanceId",
      "value" : "61B4590CB004155CB3A1C1DD737F6058",
      "url" : "http://192.168.1.72:8080/ssc/html/ssc/version/10012/fix/8887/?engineType=SCA&issue=61B4590CB004155CB3A1C1DD737F6058"
    }, {
      "name" : "Primary Rule: 0FF9D3CC-9713-4478-AA74-8F78D7A55272",
      "type" : "ruleId",
      "value" : "0FF9D3CC-9713-4478-AA74-8F78D7A55272"
    } ],
    "links" : [ {
      "name" : "Additional issue details, including analysis trace, in Software Security Center",
      "url" : "http://192.168.1.72:8080/ssc/html/ssc/version/10012/fix/8887/?engineType=SCA&issue=61B4590CB004155CB3A1C1DD737F6058"
    }, {
      "name" : "SecureCodeWarrior Training",
      "url" : "https://integration-api.securecodewarrior.com/partner?id=Microfocus&mappingKey=CookieSecurity:OverlyBroadPath:java&redirect=true"
    } ],
    "location" : {
      "file" : "src/main/java/com/example/insecureforum/web/AuthenticationController.java",
      "start_line" : 57
    }
  }, {
    "id" : "59A15BF6A66654800F695A3016A3AF65",
    "category" : "sast",
    "name" : "Cookie Security: Cookie not Sent Over SSL",
    "message" : "Cookie Security: Cookie not Sent Over SSL",
    "description" : "A cookie is created without the <code>Secure</code> flag set to <code>true</code>.\n\n\n",
    "cve" : "N/A",
    "severity" : "Low",
    "confidence" : "Low",
    "solution" : "Modern web browsers support a Secure flag for each cookie. If the flag is set, the browser will only send the cookie over HTTPS. Sending cookies over an unencrypted channel can expose them to network sniffing attacks, so the secure flag helps keep a cookie's value confidential. This is especially important if the cookie contains private data or carries a session identifier.\n  \nIn this case a cookie is created in AuthenticationController.java at line 56, but setSecure() is not called or is called with the value false.\n  \n\nExample 1: In the following example, a cookie is added to the response without setting the Secure flag.\n\n\tCookie cookie = new Cookie(\"emailCookie\", email);\n\tresponse.addCookie(cookie);\n\n\nIf your application uses both HTTPS and HTTP but does not set the Secure flag, cookies sent during an HTTPS request will also be sent during subsequent HTTP requests. Sniffing network traffic over unencrypted wireless connections is a trivial task for attackers, so sending cookies (especially those with session IDs) over HTTP can result in application compromise.\n\nSet the Secure flag on all new cookies in order to instruct browsers not to send these cookies in the clear. Do this by calling setSecure(true).\n\nExample 2:\n\n\tCookie cookie = new Cookie(\"emailCookie\", email);\n\tcookie.setSecure(true);\n\tresponse.addCookie(cookie);\n\n\n\n",
    "scanner" : {
      "id" : "fortify-sca",
      "name" : "Fortify SCA"
    },
    "identifiers" : [ {
      "name" : "Instance id: 59A15BF6A66654800F695A3016A3AF65",
      "type" : "issueInstanceId",
      "value" : "59A15BF6A66654800F695A3016A3AF65",
      "url" : "http://192.168.1.72:8080/ssc/html/ssc/version/10012/fix/8885/?engineType=SCA&issue=59A15BF6A66654800F695A3016A3AF65"
    }, {
      "name" : "Primary Rule: AC87E716-8766-4F78-8851-86354C03A13B",
      "type" : "ruleId",
      "value" : "AC87E716-8766-4F78-8851-86354C03A13B"
    } ],
    "links" : [ {
      "name" : "Additional issue details, including analysis trace, in Software Security Center",
      "url" : "http://192.168.1.72:8080/ssc/html/ssc/version/10012/fix/8885/?engineType=SCA&issue=59A15BF6A66654800F695A3016A3AF65"
    }, {
      "name" : "SecureCodeWarrior Training",
      "url" : "https://integration-api.securecodewarrior.com/partner?id=Microfocus&mappingKey=CookieSecurity:CookienotSentOverSSL:java&redirect=true"
    } ],
    "location" : {
      "file" : "src/main/java/com/example/insecureforum/web/AuthenticationController.java",
      "start_line" : 59
    }
  }, {
    "id" : "6C233171E7977E36844A84AFC729C71F",
    "category" : "sast",
    "name" : "Cookie Security: Overly Broad Path",
    "message" : "Cookie Security: Overly Broad Path",
    "description" : "A cookie with an overly broad path can be accessed through other applications on the same domain.\n\n\n",
    "cve" : "N/A",
    "severity" : "High",
    "confidence" : "Low",
    "solution" : "Developers often set cookies to be accessible from the root context path (\"/\"). This exposes the cookie to all web applications on the domain. Because cookies often carry sensitive information such as session identifiers, sharing cookies across applications can cause a vulnerability in one application to compromise another application.\n\nExample 1:\nImagine you have a forum application deployed at http://communitypages.example.com/MyForum and the application sets a session ID cookie with path \"/\" when users log in to the forum.\n\nFor example:\n\n  Cookie cookie = new Cookie(\"sessionID\", sessionID);\n  cookie.setPath(\"/\");\n\n\nSuppose an attacker creates another application at http://communitypages.example.com/EvilSite and posts a link to this site on the forum. When a user of the forum clicks this link, the browser will send the cookie set by /MyForum to the application running at /EvilSite. By stealing the session ID, the attacker can compromise the account of any forum user that browsed to /EvilSite.\n\nIn addition to reading a cookie, it might be possible for attackers to perform a Cookie Poisoning attack by using /EvilSite to create its own overly broad cookie that overwrites the cookie from /MyForum.\n\nMake sure to set cookie paths to be as restrictive as possible.\n\nExample 2: The following code shows how to set the cookie path to \"/MyForum\" for the example in the Explanation section.\n\n  Cookie cookie = new Cookie(\"sessionID\", sessionID);\n  cookie.setPath(\"/MyForum\");\n\n\n\n",
    "scanner" : {
      "id" : "fortify-sca",
      "name" : "Fortify SCA"
    },
    "identifiers" : [ {
      "name" : "Instance id: 6C233171E7977E36844A84AFC729C71F",
      "type" : "issueInstanceId",
      "value" : "6C233171E7977E36844A84AFC729C71F",
      "url" : "http://192.168.1.72:8080/ssc/html/ssc/version/10012/fix/8889/?engineType=SCA&issue=6C233171E7977E36844A84AFC729C71F"
    }, {
      "name" : "Primary Rule: 0FF9D3CC-9713-4478-AA74-8F78D7A55272",
      "type" : "ruleId",
      "value" : "0FF9D3CC-9713-4478-AA74-8F78D7A55272"
    } ],
    "links" : [ {
      "name" : "Additional issue details, including analysis trace, in Software Security Center",
      "url" : "http://192.168.1.72:8080/ssc/html/ssc/version/10012/fix/8889/?engineType=SCA&issue=6C233171E7977E36844A84AFC729C71F"
    }, {
      "name" : "SecureCodeWarrior Training",
      "url" : "https://integration-api.securecodewarrior.com/partner?id=Microfocus&mappingKey=CookieSecurity:OverlyBroadPath:java&redirect=true"
    } ],
    "location" : {
      "file" : "src/main/java/com/example/insecureforum/web/AuthenticationController.java",
      "start_line" : 67
    }
  }, {
    "id" : "4C90EC601D37620CE34010EA5DA9018D",
    "category" : "sast",
    "name" : "Cross-Site Request Forgery",
    "message" : "Cross-Site Request Forgery",
    "description" : "The form post at login.jsp line 5 must contain a user-specific secret in order to prevent an attacker from making unauthorized requests.\n\n\n",
    "cve" : "N/A",
    "severity" : "Low",
    "confidence" : "Low",
    "solution" : "A cross-site request forgery (CSRF) vulnerability occurs when:\n1. A Web application uses session cookies.\n\n2. The application acts on an HTTP request without verifying that the request was made with the user's consent.\n\n\nIn this case, the application generates HTTP request via a form post at login.jsp line 5.\n\n\nA nonce is a cryptographic random value that is sent with a message to prevent replay attacks. If the request does not contain a nonce that proves its provenance, the code that handles the request is vulnerable to a CSRF attack (unless it does not change the state of the application). This means a Web application that uses session cookies has to take special precautions in order to ensure that an attacker can't trick users into submitting bogus requests. Imagine a Web application that allows administrators to create new accounts by submitting this form:\n\n\n&lt;form method=\"POST\" action=\"/new_user\" &gt;\n  Name of new user: &lt;input type=\"text\" name=\"username\"&gt;\n  Password for new user: &lt;input type=\"password\" name=\"user_passwd\"&gt;\n    &lt;input type=\"submit\" name=\"action\" value=\"Create User\"&gt;\n&lt;/form&gt;\n\n\nAn attacker might set up a Web site with the following:\n\n\n&lt;form method=\"POST\" action=\"http://www.example.com/new_user\"&gt;\n  &lt;input type=\"hidden\" name=\"username\" value=\"hacker\"&gt;\n  &lt;input type=\"hidden\" name=\"user_passwd\" value=\"hacked\"&gt;\n&lt;/form&gt;\n&lt;script&gt;\n  document.usr_form.submit();\n&lt;/script&gt;\n\n\nIf an administrator for example.com visits the malicious page while she has an active session on the site, she will unwittingly create an account for the attacker. This is a CSRF attack. It is possible because the application does not have a way to determine the provenance of the request. Any request could be a legitimate action chosen by the user or a faked action set up by an attacker. The attacker does not get to see the Web page that the bogus request generates, so the attack technique is only useful for requests that alter the state of the application.\n\nApplications that pass the session identifier in the URL rather than as a cookie do not have CSRF problems because there is no way for the attacker to access the session identifier and include it as part of the bogus request.\n\nCSRF is entry number five on the 2007 OWASP Top 10 list.\n\nApplications that use session cookies must include some piece of information in every form post that the back-end code can use to validate the provenance of the request. One way to do that is to include a random request identifier or nonce, as follows:\n\n\n  RequestBuilder rb = new RequestBuilder(RequestBuilder.POST, \"/new_user\");\n  body = addToPost(body, new_username);\n  body = addToPost(body, new_passwd);\n  body = addToPost(body, request_id);\n  rb.sendRequest(body, new NewAccountCallback(callback));\n\n\nThen the back-end logic can validate the request identifier before processing the rest of the form data. When possible, the request identifier should be unique to each server request rather than shared across every request for a particular session. As with session identifiers, the harder it is for an attacker to guess the request identifier, the harder it is to conduct a successful CSRF attack. The token should not be easily guessed and it should be protected in the same way that session tokens are protected, such as using SSLv3.\n\nAdditional mitigation techniques include:\n\nFramework protection: Most modern web application frameworks embed CSRF protection and they will automatically include and verify CSRF tokens.\nUse a Challenge-Response control: Forcing the customer to respond to a challenge sent by the server is a strong defense against CSRF. Some of the challenges that can be used for this purpose are: CAPTCHAs, password re-authentication and one-time tokens.\nCheck HTTP Referer/Origin headers: An attacker won't be able to spoof these headers while performing a CSRF attack. This makes these headers a useful method to prevent CSRF attacks.\nDouble-submit Session Cookie: Sending the session ID Cookie as a hidden form value in addition to the actual session ID Cookie is a good protection against CSRF attacks. The server will check both values and make sure they are identical before processing the rest of the form data. If an attacker submits a form in behalf of a user, he won't be able to modify the session ID cookie value as per the same-origin-policy.\nLimit Session Lifetime: When accessing protected resources using a CSRF attack, the attack will only be valid as long as the session ID sent as part of the attack is still valid on the server. Limiting the Session lifetime will reduce the probability of a successful attack.\n\nThe techniques described here can be defeated with XSS attacks. Effective CSRF mitigation includes XSS mitigation techniques.\n\n\n\n",
    "scanner" : {
      "id" : "fortify-sca",
      "name" : "Fortify SCA"
    },
    "identifiers" : [ {
      "name" : "Instance id: 4C90EC601D37620CE34010EA5DA9018D",
      "type" : "issueInstanceId",
      "value" : "4C90EC601D37620CE34010EA5DA9018D",
      "url" : "http://192.168.1.72:8080/ssc/html/ssc/version/10012/fix/8884/?engineType=SCA&issue=4C90EC601D37620CE34010EA5DA9018D"
    }, {
      "name" : "Primary Rule: 78E0700E-56FE-45A2-A11B-6A560F730576",
      "type" : "ruleId",
      "value" : "78E0700E-56FE-45A2-A11B-6A560F730576"
    } ],
    "links" : [ {
      "name" : "Additional issue details, including analysis trace, in Software Security Center",
      "url" : "http://192.168.1.72:8080/ssc/html/ssc/version/10012/fix/8884/?engineType=SCA&issue=4C90EC601D37620CE34010EA5DA9018D"
    }, {
      "name" : "SecureCodeWarrior Training",
      "url" : "https://integration-api.securecodewarrior.com/partner?id=Microfocus&mappingKey=Cross-SiteRequestForgery::jsp&redirect=true"
    } ],
    "location" : {
      "file" : "src/main/webapp/WEB-INF/views/auth/login.jsp",
      "start_line" : 5
    }
  }, {
    "id" : "5A2A6C4E9DE3F54518F5CB5FBBFFAFD0",
    "category" : "sast",
    "name" : "Privacy Violation: Autocomplete",
    "message" : "Privacy Violation: Autocomplete",
    "description" : "The form in login.jsp uses autocompletion on line 28, which allows some browsers to retain sensitive information in their history.\n\n\n",
    "cve" : "N/A",
    "severity" : "High",
    "confidence" : "Low",
    "solution" : "With autocompletion enabled, some browsers retain user input across sessions, which could allow someone using the computer after the initial user to see information previously submitted.\n\nExplicitly disable autocompletion on forms or sensitive inputs. By disabling autocompletion, information previously entered will not be presented back to the user as they type. It will also disable the \"remember my password\" functionality of most major browsers.\n\nExample 1: In an  HTML form, disable autocompletion for all input fields by explicitly setting the value of the autocomplete attribute to off on the form tag.\n\n\n  &lt;form method=\"post\" autocomplete=\"off\"&gt;\n        Address: &lt;input name=\"address\" /&gt;\n        Password: &lt;input name=\"password\" type=\"password\" /&gt;\n  &lt;/form&gt;\n\n\nExample 2: Alternatively, disable autocompletion for specific input fields by explicitly setting the value of the autocomplete attribute to off on the corresponding tags.\n\n\n  &lt;form method=\"post\"&gt;\n        Address: &lt;input name=\"address\" /&gt;\n        Password: &lt;input name=\"password\" type=\"password\" autocomplete=\"off\"/&gt;\n  &lt;/form&gt;\n\n\nNote that the default value of the autocomplete attributed is on. Therefore do not omit the attribute when dealing with sensitive inputs.\n\n\n",
    "scanner" : {
      "id" : "fortify-sca",
      "name" : "Fortify SCA"
    },
    "identifiers" : [ {
      "name" : "Instance id: 5A2A6C4E9DE3F54518F5CB5FBBFFAFD0",
      "type" : "issueInstanceId",
      "value" : "5A2A6C4E9DE3F54518F5CB5FBBFFAFD0",
      "url" : "http://192.168.1.72:8080/ssc/html/ssc/version/10012/fix/8886/?engineType=SCA&issue=5A2A6C4E9DE3F54518F5CB5FBBFFAFD0"
    }, {
      "name" : "Primary Rule: 2FC7D1FF-11E4-468E-B7AB-F127828F4016",
      "type" : "ruleId",
      "value" : "2FC7D1FF-11E4-468E-B7AB-F127828F4016"
    } ],
    "links" : [ {
      "name" : "Additional issue details, including analysis trace, in Software Security Center",
      "url" : "http://192.168.1.72:8080/ssc/html/ssc/version/10012/fix/8886/?engineType=SCA&issue=5A2A6C4E9DE3F54518F5CB5FBBFFAFD0"
    }, {
      "name" : "SecureCodeWarrior Training",
      "url" : "https://integration-api.securecodewarrior.com/partner?id=Microfocus&mappingKey=PrivacyViolation:Autocomplete:jsp&redirect=true"
    } ],
    "location" : {
      "file" : "src/main/webapp/WEB-INF/views/auth/login.jsp",
      "start_line" : 28
    }
  }, {
    "id" : "212F1F3C9ECB2894B8A5ED9BBF47FED6",
    "category" : "sast",
    "name" : "Cross-Site Request Forgery",
    "message" : "Cross-Site Request Forgery",
    "description" : "The form post at compose.jsp line 5 must contain a user-specific secret in order to prevent an attacker from making unauthorized requests.\n\n\n",
    "cve" : "N/A",
    "severity" : "Low",
    "confidence" : "Low",
    "solution" : "A cross-site request forgery (CSRF) vulnerability occurs when:\n1. A Web application uses session cookies.\n\n2. The application acts on an HTTP request without verifying that the request was made with the user's consent.\n\n\nIn this case, the application generates HTTP request via a form post at compose.jsp line 5.\n\n\nA nonce is a cryptographic random value that is sent with a message to prevent replay attacks. If the request does not contain a nonce that proves its provenance, the code that handles the request is vulnerable to a CSRF attack (unless it does not change the state of the application). This means a Web application that uses session cookies has to take special precautions in order to ensure that an attacker can't trick users into submitting bogus requests. Imagine a Web application that allows administrators to create new accounts by submitting this form:\n\n\n&lt;form method=\"POST\" action=\"/new_user\" &gt;\n  Name of new user: &lt;input type=\"text\" name=\"username\"&gt;\n  Password for new user: &lt;input type=\"password\" name=\"user_passwd\"&gt;\n    &lt;input type=\"submit\" name=\"action\" value=\"Create User\"&gt;\n&lt;/form&gt;\n\n\nAn attacker might set up a Web site with the following:\n\n\n&lt;form method=\"POST\" action=\"http://www.example.com/new_user\"&gt;\n  &lt;input type=\"hidden\" name=\"username\" value=\"hacker\"&gt;\n  &lt;input type=\"hidden\" name=\"user_passwd\" value=\"hacked\"&gt;\n&lt;/form&gt;\n&lt;script&gt;\n  document.usr_form.submit();\n&lt;/script&gt;\n\n\nIf an administrator for example.com visits the malicious page while she has an active session on the site, she will unwittingly create an account for the attacker. This is a CSRF attack. It is possible because the application does not have a way to determine the provenance of the request. Any request could be a legitimate action chosen by the user or a faked action set up by an attacker. The attacker does not get to see the Web page that the bogus request generates, so the attack technique is only useful for requests that alter the state of the application.\n\nApplications that pass the session identifier in the URL rather than as a cookie do not have CSRF problems because there is no way for the attacker to access the session identifier and include it as part of the bogus request.\n\nCSRF is entry number five on the 2007 OWASP Top 10 list.\n\nApplications that use session cookies must include some piece of information in every form post that the back-end code can use to validate the provenance of the request. One way to do that is to include a random request identifier or nonce, as follows:\n\n\n  RequestBuilder rb = new RequestBuilder(RequestBuilder.POST, \"/new_user\");\n  body = addToPost(body, new_username);\n  body = addToPost(body, new_passwd);\n  body = addToPost(body, request_id);\n  rb.sendRequest(body, new NewAccountCallback(callback));\n\n\nThen the back-end logic can validate the request identifier before processing the rest of the form data. When possible, the request identifier should be unique to each server request rather than shared across every request for a particular session. As with session identifiers, the harder it is for an attacker to guess the request identifier, the harder it is to conduct a successful CSRF attack. The token should not be easily guessed and it should be protected in the same way that session tokens are protected, such as using SSLv3.\n\nAdditional mitigation techniques include:\n\nFramework protection: Most modern web application frameworks embed CSRF protection and they will automatically include and verify CSRF tokens.\nUse a Challenge-Response control: Forcing the customer to respond to a challenge sent by the server is a strong defense against CSRF. Some of the challenges that can be used for this purpose are: CAPTCHAs, password re-authentication and one-time tokens.\nCheck HTTP Referer/Origin headers: An attacker won't be able to spoof these headers while performing a CSRF attack. This makes these headers a useful method to prevent CSRF attacks.\nDouble-submit Session Cookie: Sending the session ID Cookie as a hidden form value in addition to the actual session ID Cookie is a good protection against CSRF attacks. The server will check both values and make sure they are identical before processing the rest of the form data. If an attacker submits a form in behalf of a user, he won't be able to modify the session ID cookie value as per the same-origin-policy.\nLimit Session Lifetime: When accessing protected resources using a CSRF attack, the attack will only be valid as long as the session ID sent as part of the attack is still valid on the server. Limiting the Session lifetime will reduce the probability of a successful attack.\n\nThe techniques described here can be defeated with XSS attacks. Effective CSRF mitigation includes XSS mitigation techniques.\n\n\n\n",
    "scanner" : {
      "id" : "fortify-sca",
      "name" : "Fortify SCA"
    },
    "identifiers" : [ {
      "name" : "Instance id: 212F1F3C9ECB2894B8A5ED9BBF47FED6",
      "type" : "issueInstanceId",
      "value" : "212F1F3C9ECB2894B8A5ED9BBF47FED6",
      "url" : "http://192.168.1.72:8080/ssc/html/ssc/version/10012/fix/8881/?engineType=SCA&issue=212F1F3C9ECB2894B8A5ED9BBF47FED6"
    }, {
      "name" : "Primary Rule: 78E0700E-56FE-45A2-A11B-6A560F730576",
      "type" : "ruleId",
      "value" : "78E0700E-56FE-45A2-A11B-6A560F730576"
    } ],
    "links" : [ {
      "name" : "Additional issue details, including analysis trace, in Software Security Center",
      "url" : "http://192.168.1.72:8080/ssc/html/ssc/version/10012/fix/8881/?engineType=SCA&issue=212F1F3C9ECB2894B8A5ED9BBF47FED6"
    }, {
      "name" : "SecureCodeWarrior Training",
      "url" : "https://integration-api.securecodewarrior.com/partner?id=Microfocus&mappingKey=Cross-SiteRequestForgery::jsp&redirect=true"
    } ],
    "location" : {
      "file" : "src/main/webapp/WEB-INF/views/messages/compose.jsp",
      "start_line" : 5
    }
  } ]
}